…
The helper function `colData_distinct()` extracts the columns that
differ between cells

```
colData_distinct(sce)
## # A tibble: 2,544 x 16
##    genes_detected file_uuid file_version cell_suspension… specimen_from_o…
##             <int> <chr>     <chr>        <chr>            <chr>
##  1           6924 6770c8ea… 2019-05-15T… 00ca0d37-b787-4… 9c1445a1-7287-4…
##  2           3171 68efbcbe… 2019-05-30T… 0103aed0-29c2-4… 14875995-58ca-4…
##  3           3838 209d615a… 2019-05-14T… 01a5dd09-db87-4… 56b6cd1e-7c2c-4…
##  4           4111 143a7005… 2019-05-14T… 020d39f9-9375-4… a1b35ebb-b79e-4…
##  5           5834 45e82c84… 2019-05-14T… 02583626-682b-4… 1f43dc7a-3f89-4…
##  6           2564 cb0b32b2… 2019-05-14T… 041637f8-d5c9-4… 14875995-58ca-4…
##  7           3152 2b5338c5… 2019-05-14T… 044472bd-588a-4… 67601c53-f042-4…
##  8           6375 66515cc6… 2019-05-14T… 046c1a85-77f7-4… 67601c53-f042-4…
##  9           4650 45e89c83… 2019-05-14T… 04f60cb7-5ced-4… 1f43dc7a-3f89-4…
## 10           4420 476dc6ce… 2019-05-14T… 061f92bf-fcfc-4… 56b6cd1e-7c2c-4…
## # … with 2,534 more rows, and 11 more variables:
## #   donor_organism.provenance.document_id <chr>,
## #   donor_organism.human_specific.ethnicity.ontology <chr>,
## #   donor_organism.human_specific.ethnicity.ontology_label <chr>,
## #   donor_organism.development_stage.ontology <chr>,
## #   donor_organism.development_stage.ontology_label <chr>,
## #   donor_organism.sex <chr>, analysis_protocol.provenance.document_id <chr>,
## #   dss_bundle_fqid <chr>, bundle_uuid <chr>, bundle_version <chr>,
## #   analysis_protocol.protocol_core.protocol_id <chr>
```
…
This can make the column names easier to use in an interactive session

```
colData_distinct(sce, abbreviate_colnames = TRUE)
## # A tibble: 2,544 x 16
##    detected file_uuid file_version suspension.prov… from_organism.p…
##       <int> <chr>     <chr>        <chr>            <chr>
##  1     6924 6770c8ea… 2019-05-15T… 00ca0d37-b787-4… 9c1445a1-7287-4…
##  2     3171 68efbcbe… 2019-05-30T… 0103aed0-29c2-4… 14875995-58ca-4…
##  3     3838 209d615a… 2019-05-14T… 01a5dd09-db87-4… 56b6cd1e-7c2c-4…
##  4     4111 143a7005… 2019-05-14T… 020d39f9-9375-4… a1b35ebb-b79e-4…
##  5     5834 45e82c84… 2019-05-14T… 02583626-682b-4… 1f43dc7a-3f89-4…
##  6     2564 cb0b32b2… 2019-05-14T… 041637f8-d5c9-4… 14875995-58ca-4…
##  7     3152 2b5338c5… 2019-05-14T… 044472bd-588a-4… 67601c53-f042-4…
##  8     6375 66515cc6… 2019-05-14T… 046c1a85-77f7-4… 67601c53-f042-4…
##  9     4650 45e89c83… 2019-05-14T… 04f60cb7-5ced-4… 1f43dc7a-3f89-4…
## 10     4420 476dc6ce… 2019-05-14T… 061f92bf-fcfc-4… 56b6cd1e-7c2c-4…
## # … with 2,534 more rows, and 11 more variables:
## #   donor_organism.provenance.document_id <chr>, ethnicity.ontology <chr>,
## #   ethnicity.ontology_label <chr>, stage.ontology <chr>,
## #   stage.ontology_label <chr>, sex <chr>,
## #   protocol.provenance.document_id <chr>, fqid <chr>, bundle_uuid <chr>,
## #   bundle_version <chr>, protocol_id <chr>
```
…
